…
as_tibble(cdf)
## # A tibble: 1,079 x 3
##    ip            asn    cidr          
##    <chr>         <chr>  <chr>         
##  1 1.10.186.158  23969  1.10.186.0/24 
##  2 1.20.100.251  23969  1.20.100.0/24 
##  3 1.20.253.128  23969  1.20.253.0/24 
##  4 1.179.157.237 131293 1.179.157.0/24
##  5 1.179.198.37  131293 1.179.198.0/24
##  6 2.61.150.231  12389  2.61.0.0/16   
##  7 2.61.173.36   12389  2.61.0.0/16   
##  8 2.95.6.233    3216   2.95.6.0/24   
##  9 2.188.164.58  42337  2.188.164.0/22
## 10 5.8.37.214    50896  5.8.37.0/24   
## # … with 1,069 more rows

count(cdf, cidr, sort=TRUE)
## # A tibble: 786 x 2
##    cidr                 n
##    <chr>            <int>
##  1 185.220.101.0/24    19
##  2 5.188.210.0/24      11
##  3 51.15.0.0/17        10
##  4 183.198.0.0/16       8
##  5 199.249.230.0/24     8
##  6 172.68.244.0/22      7
##  7 173.44.224.0/22      7
##  8 31.184.238.0/24      7
##  9 192.42.116.0/22      6
## 10 104.223.0.0/17       5
## # … with 776 more rows
```
…
